{"count":466,"next":"http://meichu.tagtoo.com.tw/advertisers?page=2","previous":null,"results":[{"id":1,"name":"Yahoo"},{"id":2,"name":"reserved"},{"id":3,"name":"Books"},{"id":6,"name":"Tagtoo"},{"id":7,"name":"Luxjoy"},{"id":9,"name":"AMSMALL"},{"id":10,"name":"ta mode"},{"id":12,"name":"System Recommender"},{"id":13,"name":"Wantku"},{"id":14,"name":"i-free"}]}
{"count":466,"next":"http://meichu.tagtoo.com.tw/advertisers?page=3","previous":"http://meichu.tagtoo.com.tw/advertisers","results":[{"id":15,"name":"5213"},{"id":16,"name":"32U"},{"id":17,"name":"Ganso"},{"id":18,"name":"Osweet"},{"id":19,"name":"Mall123"},{"id":20,"name":"zoe-grp"},{"id":21,"name":"Parisa"},{"id":22,"name":"tastelife"},{"id":23,"name":"modcon"},{"id":24,"name":"compressionsox"}]}
{"count":466,"next":"http://meichu.tagtoo.com.tw/advertisers?page=4","previous":"http://meichu.tagtoo.com.tw/advertisers?page=2","results":[{"id":25,"name":"fraichefusion"},{"id":26,"name":"MyMall"},{"id":27,"name":"mmp-bigsize"},{"id":28,"name":"Kodz-Tokichoi"},{"id":29,"name":"ERH"},{"id":30,"name":"5945"},{"id":31,"name":"excise"},{"id":32,"name":"amigo"},{"id":33,"name":"illori"},{"id":34,"name":"shopping99"}]}
{"count":466,"next":"http://meichu.tagtoo.com.tw/advertisers?page=5","previous":"http://meichu.tagtoo.com.tw/advertisers?page=3","results":[{"id":35,"name":"ann-plus"},{"id":37,"name":"Amazon"},{"id":38,"name":"Test"},{"id":39,"name":"Treemall"},{"id":40,"name":"EZTABLE"},{"id":41,"name":"womany"},{"id":42,"name":"MMP"},{"id":43,"name":"Groupon"},{"id":44,"name":"innoxa"},{"id":45,"name":"GoHappy"}]}
{"count":466,"next":"http://meichu.tagtoo.com.tw/advertisers?page=6","previous":"http://meichu.tagtoo.com.tw/advertisers?page=4","results":[{"id":47,"name":"mmpy"},{"id":48,"name":"i-house"},{"id":49,"name":"herbuy"},{"id":50,"name":"hola"},{"id":51,"name":"crazymike"},{"id":52,"name":"giilo"},{"id":53,"name":"EZTableUser"},{"id":54,"name":"Treemall Local"},{"id":55,"name":"Sweet Peach"},{"id":56,"name":"Limitstyle"}]}
{"count":466,"next":"http://meichu.tagtoo.com.tw/advertisers?page=7","previous":"http://meichu.tagtoo.com.tw/advertisers?page=5","results":[{"id":57,"name":"Momo Shop"},{"id":58,"name":"Yahoo Buy - Mobile"},{"id":59,"name":"Treemall - 3C"},{"id":60,"name":"Wedar"},{"id":61,"name":"taiwanmobile"},{"id":62,"name":"Fandora"},{"id":63,"name":"adsame"},{"id":64,"name":"Yahoo Buy - Mother Baby"},{"id":65,"name":"Treemall - Mother Baby"},{"id":66,"name":"loveherbsoap"}]}
{"count":466,"next":"http://meichu.tagtoo.com.tw/advertisers?page=8","previous":"http://meichu.tagtoo.com.tw/advertisers?page=6","results":[{"id":67,"name":"sunair"},{"id":68,"name":"ice-bumper"},{"id":69,"name":"shopping.nownews"},{"id":70,"name":"ichannels"},{"id":71,"name":"kbro"},{"id":72,"name":"App studio"},{"id":73,"name":"reserved1"},{"id":74,"name":"PALETTE"},{"id":75,"name":"mbox"},{"id":76,"name":"Reebonz"}]}
{"count":466,"next":"http://meichu.tagtoo.com.tw/advertisers?page=9","previous":"http://meichu.tagtoo.com.tw/advertisers?page=7","results":[{"id":77,"name":"Full Creator"},{"id":78,"name":"MyDress"},{"id":79,"name":"pubgame"},{"id":80,"name":"formall80"},{"id":81,"name":"amart"},{"id":82,"name":"reserve1"},{"id":83,"name":"reserve2"},{"id":84,"name":"Isobar"},{"id":85,"name":"rubon925"},{"id":86,"name":"淘寶台灣"}]}
{"count":466,"next":"http://meichu.tagtoo.com.tw/advertisers?page=10","previous":"http://meichu.tagtoo.com.tw/advertisers?page=8","results":[{"id":87,"name":"myplay"},{"id":88,"name":"Tmall"},{"id":89,"name":"Tmall mobile"},{"id":90,"name":"Tmall Mother Buy"},{"id":91,"name":"Taobao"},{"id":92,"name":"Taobao - Mobile"},{"id":93,"name":"Taobao - Mother Baby"},{"id":94,"name":"iFit"},{"id":95,"name":"mydress(now)"},{"id":96,"name":"mediasphere"}]}
{"count":466,"next":"http://meichu.tagtoo.com.tw/advertisers?page=11","previous":"http://meichu.tagtoo.com.tw/advertisers?page=9","results":[{"id":97,"name":"syinlu "},{"id":98,"name":"mobo98"},{"id":99,"name":"layoobag"},{"id":100,"name":"cthouse"},{"id":101,"name":"101hbhousing"},{"id":102,"name":"17Life"},{"id":103,"name":"citycolor"},{"id":104,"name":"reserve104"},{"id":105,"name":"reserve-105"},{"id":106,"name":"RushOffer"}]}
{"count":466,"next":"http://meichu.tagtoo.com.tw/advertisers?page=12","previous":"http://meichu.tagtoo.com.tw/advertisers?page=10","results":[{"id":107,"name":"orbis"},{"id":108,"name":"HitoBP"},{"id":109,"name":"TrendBlog"},{"id":112,"name":"fish123"},{"id":114,"name":"food123"},{"id":115,"name":"buy123"},{"id":116,"name":"zakka"},{"id":117,"name":"117life8 "},{"id":118,"name":"housefun"},{"id":119,"name":"86Shop"}]}
{"count":466,"next":"http://meichu.tagtoo.com.tw/advertisers?page=13","previous":"http://meichu.tagtoo.com.tw/advertisers?page=11","results":[{"id":120,"name":"Anden Hud"},{"id":121,"name":"lativ"},{"id":122,"name":"carloanhot"},{"id":123,"name":"TutorABC"},{"id":124,"name":"sinyi_house"},{"id":125,"name":"9388_online"},{"id":126,"name":"Jetgo"},{"id":127,"name":"QKshopping"},{"id":128,"name":"Expansys"},{"id":129,"name":"YC_house"}]}
{"count":466,"next":"http://meichu.tagtoo.com.tw/advertisers?page=15","previous":"http://meichu.tagtoo.com.tw/advertisers?page=13","results":[{"id":140,"name":"rakuya_house"},{"id":141,"name":"DADOVA Travel"},{"id":142,"name":"PayEasy"},{"id":143,"name":"Kiehls"},{"id":144,"name":"Chess Winner"},{"id":150,"name":"Careme"},{"id":152,"name":"AutoCare"},{"id":153,"name":"obdesign"},{"id":154,"name":"enewton"},{"id":155,"name":"SUM"}]}
{"count":466,"next":"http://meichu.tagtoo.com.tw/advertisers?page=16","previous":"http://meichu.tagtoo.com.tw/advertisers?page=14","results":[{"id":156,"name":"Admiral Market"},{"id":157,"name":"SmileBio"},{"id":158,"name":"Gigade"},{"id":159,"name":"Game SUM"},{"id":160,"name":"1976"},{"id":161,"name":"mizzue"},{"id":162,"name":"TW_HOUSE_INTERNATIONAL"},{"id":163,"name":"S3"},{"id":164,"name":"Qbaby"},{"id":165,"name":"Mintyshop"}]}
{"count":466,"next":"http://meichu.tagtoo.com.tw/advertisers?page=14","previous":"http://meichu.tagtoo.com.tw/advertisers?page=12","results":[{"id":130,"name":"sensen_go"},{"id":131,"name":"beauty88"},{"id":132,"name":"EROS"},{"id":133,"name":"mogan133"},{"id":134,"name":"newegg"},{"id":135,"name":"aPure"},{"id":136,"name":"Neutrogena-Isobar"},{"id":137,"name":"NewIcon-MMdc"},{"id":138,"name":"Superbox-8light"},{"id":139,"name":"bopeep"}]}
{"count":466,"next":"http://meichu.tagtoo.com.tw/advertisers?page=17","previous":"http://meichu.tagtoo.com.tw/advertisers?page=15","results":[{"id":166,"name":"Titan"},{"id":167,"name":"TWODO"},{"id":168,"name":"Amexcards"},{"id":169,"name":"top-link"},{"id":170,"name":"Nestle-bbc"},{"id":171,"name":"LOVFEE"},{"id":172,"name":"Influxx"},{"id":173,"name":"YKShouse"},{"id":174,"name":"Fashion Shop"},{"id":175,"name":"New- Presco"}]}
{"count":466,"next":"http://meichu.tagtoo.com.tw/advertisers?page=18","previous":"http://meichu.tagtoo.com.tw/advertisers?page=16","results":[{"id":176,"name":"blackcat-geosun"},{"id":177,"name":"wiwi"},{"id":178,"name":"KLS Men"},{"id":179,"name":"dpshop"},{"id":180,"name":"Ballet A"},{"id":181,"name":"TCA"},{"id":182,"name":"182image"},{"id":183,"name":"CACO"},{"id":184,"name":"Cigna Insurance"},{"id":185,"name":"rakuya_jp_estate"}]}
{"count":466,"next":"http://meichu.tagtoo.com.tw/advertisers?page=19","previous":"http://meichu.tagtoo.com.tw/advertisers?page=17","results":[{"id":186,"name":"Nestle-nan"},{"id":187,"name":"Crocs"},{"id":188,"name":"Holy"},{"id":189,"name":"Whisky-geosun"},{"id":190,"name":"8light-ck"},{"id":191,"name":"Haagen-Dazs "},{"id":192,"name":" hiiir"},{"id":193,"name":"Ruby"},{"id":194,"name":"UDN ticket"},{"id":195,"name":"public"}]}
{"count":466,"next":"http://meichu.tagtoo.com.tw/advertisers?page=20","previous":"http://meichu.tagtoo.com.tw/advertisers?page=18","results":[{"id":196,"name":"Nature Remedy"},{"id":197,"name":"Dulux-geosun"},{"id":198,"name":"redtree-presco"},{"id":199,"name":"Etlife-geosun"},{"id":200,"name":"iRent-geosun"},{"id":204,"name":"DHC"},{"id":205,"name":"puzzlefolks"},{"id":206,"name":"QueenDom"},{"id":207,"name":"UDNshopping"},{"id":208,"name":"pchome"}]}
{"count":466,"next":"http://meichu.tagtoo.com.tw/advertisers?page=21","previous":"http://meichu.tagtoo.com.tw/advertisers?page=19","results":[{"id":209,"name":"7net"},{"id":210,"name":"comode"},{"id":211,"name":"UNT"},{"id":212,"name":"Apac-property"},{"id":213,"name":"SHTICK"},{"id":214,"name":"QueenShop"},{"id":215,"name":"Guapa fashion"},{"id":216,"name":"applestarry"},{"id":217,"name":"formosa-optical"},{"id":218,"name":"TheBodyShop"}]}
{"count":466,"next":"http://meichu.tagtoo.com.tw/advertisers?page=23","previous":"http://meichu.tagtoo.com.tw/advertisers?page=21","results":[{"id":229,"name":"binoculars"},{"id":230,"name":"spottingscopes"},{"id":231,"name":"shopping_friday(hiir192)"},{"id":232,"name":"Asus"},{"id":233,"name":"OPEN LADY"},{"id":234,"name":"i3fresh"},{"id":235,"name":"mdformula"},{"id":236,"name":"swarovski"},{"id":238,"name":"etmall"},{"id":239,"name":"smalife"}]}
{"count":466,"next":"http://meichu.tagtoo.com.tw/advertisers?page=22","previous":"http://meichu.tagtoo.com.tw/advertisers?page=20","results":[{"id":219,"name":"yahoo_mall"},{"id":220,"name":"everydayhealth"},{"id":221,"name":"dr-hsieh"},{"id":222,"name":"shopunt(unt)"},{"id":223,"name":"watsons"},{"id":224,"name":"lopher"},{"id":225,"name":"worldfamily"},{"id":226,"name":"wargaming"},{"id":227,"name":"Tungyi Drug"},{"id":228,"name":"Telescopes"}]}
{"count":466,"next":"http://meichu.tagtoo.com.tw/advertisers?page=24","previous":"http://meichu.tagtoo.com.tw/advertisers?page=22","results":[{"id":240,"name":"easygo"},{"id":241,"name":"CLW"},{"id":242,"name":"ikea"},{"id":243,"name":"Andante-geosun"},{"id":244,"name":"nzfarm"},{"id":245,"name":"philavie"},{"id":246,"name":"pgmall"},{"id":247,"name":"ms-apertus"},{"id":248,"name":"MIDO"},{"id":249,"name":"NHmakeup"}]}
{"count":466,"next":"http://meichu.tagtoo.com.tw/advertisers?page=25","previous":"http://meichu.tagtoo.com.tw/advertisers?page=23","results":[{"id":250,"name":"SUM repair"},{"id":251,"name":"valentine_tagtoo"},{"id":252,"name":"socie"},{"id":253,"name":"beloved"},{"id":254,"name":"Avene"},{"id":255,"name":"chyi_house"},{"id":256,"name":"fmshoes"},{"id":257,"name":"womanna"},{"id":258,"name":"W-MIDO"},{"id":259,"name":"fonestock"}]}
{"count":466,"next":"http://meichu.tagtoo.com.tw/advertisers?page=26","previous":"http://meichu.tagtoo.com.tw/advertisers?page=24","results":[{"id":260,"name":"shark tank taiwan"},{"id":261,"name":"Nice Day"},{"id":262,"name":"pazzo"},{"id":263,"name":"meierQ"},{"id":264,"name":"CLIO"},{"id":265,"name":"PyCon"},{"id":266,"name":"naturemade-lutein"},{"id":267,"name":"verybuy"},{"id":268,"name":"Asobi"},{"id":269,"name":"abccar"}]}
{"count":466,"next":"http://meichu.tagtoo.com.tw/advertisers?page=27","previous":"http://meichu.tagtoo.com.tw/advertisers?page=25","results":[{"id":270,"name":"NARlabs"},{"id":271,"name":"naturemade-femaleV"},{"id":272,"name":"lolinya"},{"id":273,"name":"savills"},{"id":274,"name":"muji"},{"id":275,"name":"Voice_tube"},{"id":276,"name":"default_campaign"},{"id":277,"name":"flybuy"},{"id":278,"name":"st.clare"},{"id":279,"name":"Fiti"}]}
{"count":466,"next":"http://meichu.tagtoo.com.tw/advertisers?page=28","previous":"http://meichu.tagtoo.com.tw/advertisers?page=26","results":[{"id":280,"name":"EGOS"},{"id":281,"name":"ELITE"},{"id":282,"name":"MeetTaiwan"},{"id":283,"name":"illuma"},{"id":284,"name":"familymart"},{"id":285,"name":"Anns"},{"id":286,"name":"PurpleCane"},{"id":287,"name":"AmexGRCC"},{"id":288,"name":"288ssweet"},{"id":289,"name":"udn_test"}]}
{"count":466,"next":"http://meichu.tagtoo.com.tw/advertisers?page=29","previous":"http://meichu.tagtoo.com.tw/advertisers?page=27","results":[{"id":290,"name":"Dr.Douxi"},{"id":291,"name":"vitalspa"},{"id":292,"name":"Easycar"},{"id":293,"name":"Catworld293"},{"id":294,"name":"Efshop"},{"id":295,"name":"cue_shop"},{"id":296,"name":"lazada.vn"},{"id":297,"name":"StayReal"},{"id":298,"name":"Act168"},{"id":299,"name":"cubas"}]}
{"count":466,"next":"http://meichu.tagtoo.com.tw/advertisers?page=30","previous":"http://meichu.tagtoo.com.tw/advertisers?page=28","results":[{"id":300,"name":"BMW"},{"id":301,"name":"unicorn301"},{"id":302,"name":"Taiwan Excellence"},{"id":303,"name":"eyescream-old"},{"id":304,"name":"Youbeli"},{"id":305,"name":"Gogoro"},{"id":306,"name":"lamsamyick"},{"id":307,"name":"wuwow"},{"id":308,"name":"miacare"},{"id":309,"name":"Mystartr"}]}
{"count":466,"next":"http://meichu.tagtoo.com.tw/advertisers?page=31","previous":"http://meichu.tagtoo.com.tw/advertisers?page=29","results":[{"id":310,"name":"wantku310"},{"id":311,"name":"allyoung"},{"id":312,"name":"Festour"},{"id":313,"name":"HTY"},{"id":314,"name":"janlov"},{"id":315,"name":"HSBC"},{"id":316,"name":"HappyHoliday"},{"id":317,"name":"morino"},{"id":318,"name":"Perfect-tours"},{"id":319,"name":"greathome"}]}
{"count":466,"next":"http://meichu.tagtoo.com.tw/advertisers?page=32","previous":"http://meichu.tagtoo.com.tw/advertisers?page=30","results":[{"id":320,"name":"華儷獅城"},{"id":321,"name":"choies321"},{"id":322,"name":"Lux"},{"id":323,"name":"go2apple"},{"id":324,"name":"netonboard"},{"id":325,"name":"Evaair長榮"},{"id":326,"name":"蘇富比地產"},{"id":327,"name":"trendmicro"},{"id":328,"name":"ChinaAirline華航"},{"id":329,"name":"Naruko 牛爾"}]}
{"count":466,"next":"http://meichu.tagtoo.com.tw/advertisers?page=33","previous":"http://meichu.tagtoo.com.tw/advertisers?page=31","results":[{"id":330,"name":"nowfoods"},{"id":331,"name":"ValenBikes"},{"id":332,"name":"CHUU"},{"id":333,"name":"marcella"},{"id":334,"name":"viewpointtaiwan"},{"id":335,"name":"oneboy"},{"id":336,"name":"Terminus"},{"id":337,"name":"U-GYM"},{"id":338,"name":"Allwealth"},{"id":339,"name":"1775"}]}
{"count":466,"next":"http://meichu.tagtoo.com.tw/advertisers?page=34","previous":"http://meichu.tagtoo.com.tw/advertisers?page=32","results":[{"id":340,"name":"Peacetour"},{"id":341,"name":"Paradiso garden"},{"id":342,"name":"sharelike"},{"id":343,"name":"Neal's Yard"},{"id":344,"name":"1010Apothecary"},{"id":345,"name":"octobersecond"},{"id":346,"name":"apezgo"},{"id":347,"name":"photobook"},{"id":348,"name":"Agendamall"},{"id":349,"name":"milkadeal"}]}
{"count":466,"next":"http://meichu.tagtoo.com.tw/advertisers?page=35","previous":"http://meichu.tagtoo.com.tw/advertisers?page=33","results":[{"id":351,"name":"Fashiongraphy"},{"id":352,"name":"Cloone"},{"id":353,"name":"Xpatmobi"},{"id":354,"name":"Ingap"},{"id":355,"name":"Andria"},{"id":356,"name":"myrenta"},{"id":357,"name":"Crocs2015"},{"id":358,"name":"check2check"},{"id":359,"name":"HaWoo"},{"id":360,"name":"tholiday"}]}
{"count":466,"next":"http://meichu.tagtoo.com.tw/advertisers?page=37","previous":"http://meichu.tagtoo.com.tw/advertisers?page=35","results":[{"id":372,"name":"appletour"},{"id":373,"name":"mooncat"},{"id":374,"name":"kin"},{"id":375,"name":"一起遊戲"},{"id":376,"name":"mdmmd"},{"id":377,"name":"Boskin"},{"id":378,"name":"Blogger"},{"id":379,"name":"百軒 日本觀光"},{"id":380,"name":"Hotdeal"},{"id":381,"name":"AsiaYo"}]}
{"count":466,"next":"http://meichu.tagtoo.com.tw/advertisers?page=36","previous":"http://meichu.tagtoo.com.tw/advertisers?page=34","results":[{"id":361,"name":"misstic"},{"id":362,"name":"CNS"},{"id":363,"name":"kkday"},{"id":364,"name":"Digiwin"},{"id":365,"name":"BenQ"},{"id":366,"name":"shinkong"},{"id":367,"name":"myone"},{"id":368,"name":"colorfulmarine"},{"id":370,"name":"yungching"},{"id":371,"name":"tkec"}]}
{"count":466,"next":"http://meichu.tagtoo.com.tw/advertisers?page=38","previous":"http://meichu.tagtoo.com.tw/advertisers?page=36","results":[{"id":382,"name":"color888"},{"id":383,"name":"Bevy. C"},{"id":384,"name":"eGentic"},{"id":385,"name":"喬商韓國"},{"id":386,"name":"C&B"},{"id":387,"name":"HotCar"},{"id":388,"name":"Taiwan redenvelope"},{"id":389,"name":"starmimi"},{"id":390,"name":"packchair"},{"id":391,"name":"ASWY"}]}
{"count":466,"next":"http://meichu.tagtoo.com.tw/advertisers?page=39","previous":"http://meichu.tagtoo.com.tw/advertisers?page=37","results":[{"id":392,"name":"Ryokan"},{"id":393,"name":"eswan"},{"id":394,"name":"Eyescream"},{"id":395,"name":"Mannes"},{"id":396,"name":"Bfage"},{"id":397,"name":"sunshine"},{"id":398,"name":"maobao2"},{"id":399,"name":"martintravel"},{"id":400,"name":"iprospect"},{"id":401,"name":"nanshanlife"}]}
{"count":466,"next":"http://meichu.tagtoo.com.tw/advertisers?page=40","previous":"http://meichu.tagtoo.com.tw/advertisers?page=38","results":[{"id":402,"name":"遠雄"},{"id":403,"name":"bonny & read"},{"id":404,"name":"tigerair"},{"id":406,"name":"Carrefour"},{"id":407,"name":"張韶涵演唱會"},{"id":408,"name":"famicloud"},{"id":409,"name":"Morningshop"},{"id":410,"name":"besttour"},{"id":411,"name":"HappyFresh"},{"id":412,"name":"Liyo"}]}
{"count":466,"next":"http://meichu.tagtoo.com.tw/advertisers?page=41","previous":"http://meichu.tagtoo.com.tw/advertisers?page=39","results":[{"id":413,"name":"Smart lifeXcommerce"},{"id":414,"name":"Tuding2u"},{"id":415,"name":"Arin"},{"id":416,"name":"MicroAd"},{"id":417,"name":"myqshop"},{"id":418,"name":"Zoocci"},{"id":419,"name":"Bensimon"},{"id":420,"name":"number nine"},{"id":421,"name":"桂冠"},{"id":422,"name":"桂冠卡好"}]}
{"count":466,"next":"http://meichu.tagtoo.com.tw/advertisers?page=42","previous":"http://meichu.tagtoo.com.tw/advertisers?page=40","results":[{"id":423,"name":"JSL"},{"id":424,"name":"tagtootest"},{"id":425,"name":"okBank"},{"id":426,"name":"Jackercleaning"},{"id":427,"name":"Laurel 2"},{"id":428,"name":"lovedear"},{"id":429,"name":"Laurel happy salad "},{"id":430,"name":"laurel happy salad sp"},{"id":431,"name":"drcink"},{"id":432,"name":"bgshop"}]}
{"count":466,"next":"http://meichu.tagtoo.com.tw/advertisers?page=43","previous":"http://meichu.tagtoo.com.tw/advertisers?page=41","results":[{"id":433,"name":"3M"},{"id":434,"name":"Kirin"},{"id":435,"name":"mumushop"},{"id":436,"name":"testad"},{"id":437,"name":"so-nice"},{"id":438,"name":"myacg"},{"id":439,"name":"RT-mart"},{"id":440,"name":"shizen"},{"id":441,"name":"newland"},{"id":442,"name":"Mataharimall"}]}
{"count":466,"next":"http://meichu.tagtoo.com.tw/advertisers?page=44","previous":"http://meichu.tagtoo.com.tw/advertisers?page=42","results":[{"id":443,"name":"Vaan2"},{"id":444,"name":"Yes777"},{"id":445,"name":"益立信"},{"id":446,"name":"康是美-KISSUI新琦肌"},{"id":447,"name":"bttravel"},{"id":449,"name":"starclinic"},{"id":450,"name":"麗嬰房"},{"id":451,"name":"Vaan2FB"},{"id":452,"name":"test for migration"},{"id":453,"name":"東京正宗"}]}
{"count":466,"next":"http://meichu.tagtoo.com.tw/advertisers?page=45","previous":"http://meichu.tagtoo.com.tw/advertisers?page=43","results":[{"id":454,"name":"newtop"},{"id":455,"name":"idealgame"},{"id":456,"name":"Nile"},{"id":457,"name":"Nile.my"},{"id":458,"name":"toluna"},{"id":465,"name":"canachieve"},{"id":470,"name":"Pocari Sweat"},{"id":471,"name":"Fees"},{"id":472,"name":"EVAAIR"},{"id":574,"name":"starnic"}]}
{"count":466,"next":"http://meichu.tagtoo.com.tw/advertisers?page=46","previous":"http://meichu.tagtoo.com.tw/advertisers?page=44","results":[{"id":576,"name":"桂冠早餐大作戰"},{"id":577,"name":"baker street"},{"id":578,"name":"Club med"},{"id":579,"name":"創業家兄弟"},{"id":580,"name":"dominos"},{"id":581,"name":"cycling express"},{"id":582,"name":"settour"},{"id":583,"name":"Ghosta"},{"id":584,"name":"國泰金控"},{"id":585,"name":"Paktor"}]}
{"count":466,"next":"http://meichu.tagtoo.com.tw/advertisers?page=47","previous":"http://meichu.tagtoo.com.tw/advertisers?page=45","results":[{"id":587,"name":"TagtooDashboardTest1"},{"id":588,"name":"smartrade"},{"id":589,"name":"Daddyshouse.my"},{"id":590,"name":"潤泰集團"},{"id":591,"name":"Auping"},{"id":595,"name":"Tagtoo Bot 查寧"},{"id":596,"name":"super color"},{"id":597,"name":"Tokichoi"},{"id":598,"name":"Panahome"},{"id":599,"name":"Allyoung.my"}]}
{"count":466,"next":null,"previous":"http://meichu.tagtoo.com.tw/advertisers?page=46","results":[{"id":600,"name":"Kingsacademyedu"},{"id":601,"name":"Kheng Yu"},{"id":602,"name":"Greencom"},{"id":603,"name":"Fashion index"},{"id":604,"name":"Ebooss"},{"id":605,"name":"我思"}]}
